{
    "editor": [
        {
            "icon": "",
            "key": "preGameScreen",
            "header": "PreGameScreen",
            "disabled": false,
            "fields": [
                {
                    "key": "titleText",
                    "header": "Title Text",
                    "type": "text"
                },
                {
                    "key": "titleTextSize",
                    "header": "Title text size",
                    "type": "range",
                    "options": {
                        "minValue": 20,
                        "maxValue": 40,
                        "stepSize": "1"
                    }
                },
                {
                    "key": "playButtonText",
                    "header": "Play Button Text",
                    "type": "text"
                },
                {
                    "key": "buttonTextColor",
                    "header": "Play Button Text Color",
                    "type": "color"
                },
                {
                    "key": "backgroundImage",
                    "header": "Background Image",
                    "type": "image"
                },
                {
                    "key": "titleImage",
                    "header": "Header Image",
                    "type": "image"
                },
                {
                    "key": "titleImageSize",
                    "header": "Header image size",
                    "type": "range",
                    "options": {
                        "minValue": 150,
                        "maxValue": 400,
                        "stepSize": "1"
                    }
                },
                {
                    "key": "cardColor",
                    "header": "Card Color",
                    "type": "color"
                },
                {
                    "key": "buttonColor",
                    "header": "Play Button Color",
                    "type": "color"
                },
                {
                    "key": "fontFamily",
                    "header": "Google Font Name",
                    "type": "text"
                },
                {
                    "key": "showLeaderboardButton",
                    "header": "Show leaderboard button",
                    "type": "boolean"
                },
                {
                    "key": "leaderboardButtonText",
                    "header": "Leaderboard button text",
                    "type": "text"
                },
                {
                    "key": "showSoundButton",
                    "header": "Show sound button",
                    "type": "boolean"
                },
                {
                    "key": "soundEnabledIcon",
                    "type": "image",
                    "header": "Sound enabled icon"
                },
                {
                    "key": "soundDisabledIcon",
                    "type": "image",
                    "header": "Sound disabled icon"
                }
            ]
        },
        {
            "icon": "",
            "key": "settings",
            "header": "Game Settings",
            "disabled": false,
            "fields": [
                {
                    "key": "instructions1",
                    "type": "text",
                    "header": "Instructions Text 1"
                },
                {
                    "key": "instructions2",
                    "type": "text",
                    "header": "Instructions Text 2"
                },
                {
                    "key": "instructions3",
                    "type": "text",
                    "header": "Instructions Text 3"
                },
                {
                    "key": "textColor",
                    "header": "In Game Text Color",
                    "type": "color"
                },
                {
                    "key": "rows",
                    "header": "Rows",
                    "type": "range",
                    "options": {
                        "minValue": 5,
                        "maxValue": 9,
                        "stepSize": 1
                    }
                },
                {
                    "key": "columns",
                    "header": "Columns",
                    "type": "range",
                    "options": {
                        "minValue": 5,
                        "maxValue": 9,
                        "stepSize": 1
                    }
                },
                {
                    "key": "objects",
                    "header": "Objects",
                    "type": "array",
                    "fields": [
                        {
                            "key": "o1",
                            "header": "Object 1",
                            "type": "image"
                        },
                        {
                            "key": "o2",
                            "header": "Object 2",
                            "type": "image"
                        },
                        {
                            "key": "o3",
                            "header": "Object 3",
                            "type": "image"
                        },
                        {
                            "key": "o4",
                            "header": "Object 4",
                            "type": "image"
                        }
                    ]
                },
                {
                    "key": "showGrid",
                    "header": "Display game board",
                    "type": "boolean"
                },
                {
                    "key": "gridColor",
                    "header": "Game board color",
                    "type": "color"
                },
                {
                    "key": "correctMovePoints",
                    "header": "Points to increase on correct move",
                    "type": "range",
                    "options": {
                        "minValue": 1,
                        "maxValue": 10,
                        "stepSize": 1
                    }
                },
                {
                    "key": "wrongMoves",
                    "header": "Reduce points on wrong move",
                    "type": "boolean"
                },
                {
                    "key": "wrongMovePoints",
                    "header": "Points to reduce on wrong move",
                    "type": "range",
                    "options": {
                        "minValue": 1,
                        "maxValue": 10,
                        "stepSize": 1
                    }
                },
                {
                    "key": "timeWrongMoves",
                    "header": "Reduce time on wrong move",
                    "type": "boolean"
                },
                {
                    "key": "wrongMoveTime",
                    "header": "Time to reduce on wrong move",
                    "type": "range",
                    "options": {
                        "minValue": 1,
                        "maxValue": 10,
                        "step": 1
                    }
                },
                {
                    "key": "scoreToWin",
                    "header": "Score required to win",
                    "type": "range",
                    "options": {
                        "minValue": 10,
                        "maxValue": 5000,
                        "step": 1
                    }
                },
                {
                    "key": "fixedLegth",
                    "header": "Fixed length game",
                    "type": "boolean"
                },
                {
                    "key": "gameLength",
                    "header": "Game length",
                    "type": "range",
                    "options": {
                        "minValue": 5,
                        "maxValue": 60,
                        "stepSize": 1
                    }
                },
                {
                    "key": "timeUpText",
                    "header": "Time up text",
                    "type": "text"
                },
                {
                    "key": "messageTextColor",
                    "header": "End game message text color",
                    "type": "color"
                },
                {
                    "key": "winText",
                    "header": "Win text",
                    "type": "text"
                },
                {
                    "key": "winSound",
                    "header": "Win sound effect",
                    "type": "sound"
                },
                {
                    "key": "theme",
                    "header": "Background Music",
                    "type": "sound"
                },
                {
                    "key": "incorrectSound",
                    "header": "Incorrect move sound",
                    "type": "sound"
                },
                {
                    "key": "correctSound",
                    "header": "Correct move sound",
                    "type": "sound"
                },
                {
                    "key": "lose",
                    "header": "Lose sound effect",
                    "type": "sound"
                },
                {
                    "key": "volume",
                    "header": "Background music volume",
                    "type": "range",
                    "options": {
                        "minValue": 0,
                        "maxValue": 1,
                        "stepSize": "0.1"
                    }
                },
                {
                    "key": "sfxVolume",
                    "header": "Sound effects volume",
                    "type": "range",
                    "options": {
                        "minValue": 0,
                        "maxValue": 1,
                        "stepSize": "0.1"
                    }
                }
            ]
        },
        {
            "icon": "",
            "key": "postGameScreen",
            "header": "Post Game Screen",
            "disabled": false,
            "fields": [
                {
                    "key": "scoreText",
                    "header": "Text before score",
                    "type": "text"
                },
                {
                    "key": "textColor",
                    "header": "Text Color",
                    "type": "color"
                },
                {
                    "key": "cardColor",
                    "header": "Card Background Color",
                    "type": "color"
                },
                {
                    "key": "playButtonText",
                    "header": "Play again button text",
                    "type": "text"
                },
                {
                    "key": "buttonColor",
                    "header": "Buttons color",
                    "type": "color"
                },
                {
                    "key": "buttonTextColor",
                    "header": "Buttons text color",
                    "type": "color"
                },
                {
                    "key": "showText",
                    "header": "Show custom text",
                    "type": "boolean"
                },
                {
                    "key": "customText",
                    "header": "Custom text",
                    "type": "text"
                },
                {
                    "key": "showLeadeboardButtonPostGameScreen",
                    "header": "Show Leadeboard Button",
                    "type": "boolean"
                },
                {
                    "key": "leaderboardButtonText",
                    "type": "text",
                    "header": "Leadeboard button text"
                },
                {
                    "key": "showCTA",
                    "header": "Show CTA Button",
                    "type": "boolean"
                },
                {
                    "key": "ctaText",
                    "header": "CTA text",
                    "type": "text"
                },
                {
                    "key": "ctaButtonText",
                    "header": "CTA button text",
                    "type": "text"
                },
                {
                    "key": "ctaUrl",
                    "header": "CTA Link",
                    "type": "text"
                }
            ]
        }
    ],
    "config": {
        "preGameScreen": {
            "titleText": "Match FAANG Stocks",
            "titleTextSize": 28,
            "playButtonText": "Play",
            "cardColor": "#d7d7d7",
            "buttonColor": "#4464af",
            "buttonTextColor": "#efeced",
            "backgroundImage": "http://playcent.com/protected/project-picker/5ef86f1e722c496a8f8f54b3ba91ea87",
            "titleImage": "http://playcent.com/protected/project-picker/d1dd7232344242d2a10738758188cb4f",
            "titleImageSize": 200,
            "fontFamily": "Balsamiq Sans",
            "showLeaderboardButton": false,
            "leaderboardButtonText": "Leadeboard",
            "showSoundButton": true,
            "soundEnabledIcon": "http://s3.ap-south-1.amazonaws.com/dist.playcent.com/match-3/assets/sound_on.png",
            "soundDisabledIcon": "http://s3.ap-south-1.amazonaws.com/dist.playcent.com/match-3/assets/sound_off.png"
        },
        "settings": {
            "instructions1": "Swipe along 2 items to swap them",
            "instructions2": "Score as much as possible!",
            "instructions3": "Have fun!",
            "textColor": "#e0dede",
            "rows": 6,
            "columns": 6,
            "correctMovePoints": 5,
            "wrongMoves": true,
            "wrongMovePoints": 5,
            "timeWrongMoves": true,
            "wrongMoveTime": 5,
            "scoreToWin": 990,
            "fixedLength": true,
            "gameLength": 60,
            "timeUpText": "Time Up!!!",
            "messageTextColor": "#000000",
            "winText": "Congratulations!",
            "loseText": "Maybe next time.",
            "objects": {
                "o1": "http://playcent.com/protected/project-picker/d0d9a8a9a93248198b037485aea38b09",
                "o2": "http://playcent.com/protected/project-picker/15baedf599ba4a118183aeb5b5d5c016",
                "o3": "http://playcent.com/protected/project-picker/80fc2a42616145f391beae2de8a09149",
                "o4": "http://playcent.com/protected/project-picker/956c8c762bfe44c883355aaf47cecbc1"
            },
            "showGrid": false,
            "gridColor": "#bd154b",
            "theme": "http://playcent.com/protected/project-picker/242ba6cb2a2844238b369e1f62b24c6b",
            "winSound": "http://s3.ap-south-1.amazonaws.com/dist.playcent.com/match-3/assets/win.ogg",
            "loseSound": "http://s3.ap-south-1.amazonaws.com/dist.playcent.com/match-3/assets/lose.ogg",
            "incorrectSound": "http://s3.ap-south-1.amazonaws.com/dist.playcent.com/match-3/assets/incorrect.ogg",
            "correctSound": "http://s3.ap-south-1.amazonaws.com/dist.playcent.com/match-3/assets/correct.ogg",
            "volume": 0.3,
            "sfxVolume": 0.7,
            "fixedLegth": true
        },
        "postGameScreen": {
            "scoreText": "Your score",
            "playButtonText": "Play Again",
            "buttonColor": "#000000",
            "cardColor": "#ffffff",
            "textColor": "#dcd9d9",
            "showLeadeboardButtonPostGameScreen": true,
            "leaderboardButtonText": "Leaderboard",
            "showText": false,
            "customText": "Hello world",
            "showCTA": true,
            "ctaText": "Check out our page for more",
            "ctaButtonText": "Go to Playcent",
            "ctaUrl": "http://playcent.com/"
        }
    }
}